[
  {
    "name": "GyroCode",
    "title": "Fun with a Phone's Gyroscope",
    "slug": "Gyrocode",
    "shape": "Compass",
    "desc": "<p>To demonstrate the responsiveness of a phone's accelerometer, I wrote a simple web app that asks the user for motion permissions and then applies the inverse rotation of the phone's z-axis to the entire canvas.</p><p>Try it out here: <a href='gyroco.de' target='_blank'>gyroco.de</a><video src='videos/gyrocode.mp4' poster='videos/gyrocode.jpg' controls='true' playsinline='true'></video></p>",
    "tags": []
  },
  {
    "name": "Socket Pilot",
    "title": "Websocket Powered Flight Simulator",
    "slug": "SocketPilot",
    "shape": "Yoke",
    "desc": "<p>Coming Soon</p>",
    "tags" : [ "augmented reality", "computer vision", "events" ]
  },
  {
    "name": "3D Printing",
    "title": "Collection of Prints",
    "slug": "3DPrints",
    "shape": "Sphere",
    "desc": "<p>Emergency Pizza</p><p>Sarah & Steph Wedding Present.</p><p>Hue Light switches</p><p>Printing around GoPro</p><p>Pax backends</p><p>Trophies</p><p>Beer Tap</p>",
    "tags": []
  },
  {
    "name": "Maria Tash",
    "title": "WebGL Earring Customizer",
    "slug": "MariaTash",
    "shape": "Ear",
    "desc": "<p>Coming Soon</p>",
    "tags": ["webgl", "algorithm design"]
  },
  {
    "name": "iDive",
    "title": "Data Visualization Suite",
    "slug": "idive",
    "shape": "Ear",
    "desc": "<p>Coming Soon</p>",
    "tags": []
  },
  {
    "name": "Big Natural Toes",
    "title": "Gag website for Uber",
    "slug": "toes",
    "shape": "toe",
    "desc": "<p></p>",
    "tags": ["frontend"]
  },
  {
    "name": "Ugly Sweater Generator",
    "title": "Tis the season to be ugly",
    "slug": "uglysweaters",
    "shape": "shirt",
    "desc": "<p></p>",
    "tags": ["frontend", "webgl", "generative ai"]
  },
  {
    "name": "Harry Potter",
    "title": "Wizarding World AR App",
    "slug": "HarryPotter",
    "shape": "broom",
    "desc": "<p>Coming Soon</p>",
    "tags": ["augmented reality", "frontend", "physical computing"]
  }
]